{"content":[{"sedi":["Lombardia","Milano"],"settori":[],"categorie":["Concorso"],"calculatedStatus":"OPEN","statusLabel":"Aperto","id":"524f397e3ae245018b29d8aaa862cc4e","codice":"c_c052032026","titolo":"COMUNE DI CASTANO PRIMO - BANDO DI CONCORSO PER TITOLI ED ESAMI PER 1 POSTO A TEMPO PIENO E INDETERMINATO DI ISTRUTTORE AMM. CONTABILE -UFFICIO RAGIONERIA- CON RISERVA F.F.A.A.","descrizione":"<p>BANDO DI CONCORSO PUBBLICO , PER TITOLI ED ESAMI, PER LA COPERTURA DI N. 1 POSTO A TEMPO PIENO E INDETERMINATO, PROFILO PROFESSIONALE ISTRUTTORE AMMINISTRATIVO CONTABILE -UFFICIO RAGIONERIA- PRIORITARIAMENTE RISERVATO AI VOLONTARI DELLE F.F.A.A. (AI SENSI DELL’ART. 1014, COMMI 3 E 4 E DELL’ART. 678, COMMA 9, DEL D. LGS. 66/2010)</p>","descrizioneBreve":"<p>Bando di concorso per Istruttore Amministrativo Contabile destinato all'Ufficio Ragioneria</p>","figuraRicercata":"Istruttore amministrativo contabile","dataPubblicazione":"2026-02-19T12:00:00Z","dataScadenza":"2026-03-19T11:00:00Z","dataVisibilita":"2026-02-19T12:00:00Z","linkReindirizzamento":null,"tipoProcedura":"TITOLI_ESAMI","group":{"id":null,"titolo":null,"concorsi":null},"importaCandidature":null,"options":null,"salaryMin":null,"salaryMax":null,"numPosti":1,"status":null,"ente":null,"entiRiferimento":["Comune di Castano Primo"],"tests":null,"allegatoMediaId":"e2c91d71-4e2e-4b5a-99af-44c66a4925fc","tipiProcedureGruppo":null,"numCandidaturePending":null,"numCandidatureSubmitted":null,"procedureStatusLabel":null},{"sedi":["Veneto","Verona"],"settori":[],"categorie":["Concorso"],"calculatedStatus":"OPEN","statusLabel":"Aperto","id":"6b65d5cf1a304971ab2e00bfb472cc56","codice":"TORRI/26/CONC_CONT_D","titolo":"COMUNE DI TORRI DEL BENACO - PROVINCIA DI VERONA - CONCORSO PUBBLICO, PER ESAMI, PER LA COPERTURA DI N. 1 POSTO A TEMPO PIENO ED INDETERMINATO AREA FUNZIONARI ED E.Q. - PROFILO CONTABILE","descrizione":"<p>COMUNE DI TORRI DEL BENACO - PROVINCIA DI VERONA - CONCORSO PUBBLICO, PER ESAMI, PER LA COPERTURA DI N. 1 POSTO A TEMPO PIENO ED INDETERMINATO AREA FUNZIONARI ED E.Q. - PROFILO CONTABILE</p>","descrizioneBreve":"<p>COMUNE DI TORRI DEL BENACO - PROVINCIA DI VERONA - CONCORSO PUBBLICO, PER ESAMI, PER LA COPERTURA DI N. 1 POSTO A TEMPO PIENO ED INDETERMINATO AREA FUNZIONARI ED E.Q. - PROFILO CONTABILE</p>","figuraRicercata":"AREA FUNZIONARI ED EQ PROFILO CONTABILE","dataPubblicazione":"2026-02-19T12:00:00Z","dataScadenza":"2026-03-12T22:59:00Z","dataVisibilita":"2026-02-19T12:00:00Z","linkReindirizzamento":null,"tipoProcedura":"ESAMI","group":{"id":null,"titolo":null,"concorsi":null},"importaCandidature":null,"options":null,"salaryMin":null,"salaryMax":null,"numPosti":1,"status":null,"ente":null,"entiRiferimento":["Comune di Torri del Benaco"],"tests":null,"allegatoMediaId":"e55aea3a-4c3b-4e12-94f1-cec286499d4b","tipiProcedureGruppo":null,"numCandidaturePending":null,"numCandidatureSubmitted":null,"procedureStatusLabel":null},{"sedi":["Trentino Alto Adige","Trento"],"settori":[],"categorie":["Concorso"],"calculatedStatus":"OPEN","statusLabel":"Aperto","id":"e569d0a4974042ab8d415771e745643e","codice":"ASUIT_CD_03/26","titolo":"Azienda sanitaria universitaria integrata del Trentino - Concorso pubblico per esami per assunzioni a tempo pieno ed indeterminato nel profilo professionale di Dirigente medico - disciplina: Dermatologia","descrizione":"<p>È onere dei candidati consultare periodicamente la<a href=\"https://www.apss.tn.it/Documenti-e-dati/Concorsi/Concorso-pubblico-per-esami-per-assunzioni-a-tempo-pieno-ed-indeterminato-nel-profilo-professionale-di-Dirigente-medico-disciplina-dermatologia2\"> pagina</a> per prendere visione delle successive comunicazioni ed aggiornamenti relativi alla presente procedura.</p>\n<p>Al termine del concorso l’Azienda sanitaria universitaria integrata del Trentino (ASUIT) potrà procedere alle assunzioni, in numero compatibile con le effettive necessità di servizio e con le disponibilità finanziarie.</p>\n<p>&nbsp;</p>","descrizioneBreve":"<p>In esecuzione della determinazione del Direttore del Dipartimento risorse umane n. 233/2026 del 12 febbraio 2026 è bandito concorso pubblico per esami per assunzioni a tempo pieno ed indeterminato nel profilo professionale di Dirigente medico – disciplina DERMATOLOGIA</p>","figuraRicercata":"Dirigente medico","dataPubblicazione":"2026-02-19T11:20:00Z","dataScadenza":"2026-03-20T11:00:00Z","dataVisibilita":"2026-02-19T11:20:00Z","linkReindirizzamento":"https://www.apss.tn.it/Documenti-e-dati/Concorsi/Concorso-pubblico-per-esami-per-assunzioni-a-tempo-pieno-ed-indeterminato-nel-profilo-professionale-di-Dirigente-medico-disciplina-dermatologia2","tipoProcedura":"ESAMI","group":{"id":null,"titolo":null,"concorsi":null},"importaCandidature":null,"options":null,"salaryMin":null,"salaryMax":null,"numPosti":1,"status":null,"ente":null,"entiRiferimento":["Azienda Provinciale per i Servizi Sanitari della Provincia Autonoma di Trento"],"tests":null,"allegatoMediaId":null,"tipiProcedureGruppo":null,"numCandidaturePending":null,"numCandidatureSubmitted":null,"procedureStatusLabel":null},{"sedi":["Lazio","Roma"],"settori":[],"categorie":["Concorso"],"calculatedStatus":"OPEN","statusLabel":"Aperto","id":"ed9f9df28b52478aa1332313ab1fdbc7","codice":"arpa_laz_avviso_02_2026","titolo":"ARPA Lazio - Avviso pubblico, per titoli e colloquio, assunzione tempo pieno e determinato durata di 12 mesi prorogabili n. 1 unità Collaboratore Tecnico Professionale, Area dei professionisti della salute e dei funzionari, CCNL comparto Sanità, per attività di cui Convenzione con Regione Lazio per aggiornamento Piano Risanamento Qualità dell’Aria (PRQA) - codice avviso 02 _2026.","descrizione":"<p><span style=\"font-size: 12.0pt; mso-bidi-font-size: 11.0pt; line-height: 107%; font-family: 'Times New Roman',serif; mso-fareast-font-family: Calibri; mso-ansi-language: IT; mso-fareast-language: EN-US; mso-bidi-language: AR-SA;\">Avviso pubblico, per titoli e colloquio, per l’assunzione a tempo pieno e determinato della durata di 12 mesi prorogabili di n. 1 unità di personale del profilo professionale di Collaboratore Tecnico Professionale, Area dei professionisti della salute e dei funzionari , CCNL comparto Sanità,<span style=\"mso-spacerun: yes;\">&nbsp; </span>per le attività<span style=\"mso-spacerun: yes;\">&nbsp; </span>di cui alla Convenzione<span style=\"mso-spacerun: yes;\">&nbsp;&nbsp; </span>con<span style=\"mso-spacerun: yes;\">&nbsp;&nbsp; </span>la<span style=\"mso-spacerun: yes;\">&nbsp;&nbsp; </span>Regione<span style=\"mso-spacerun: yes;\">&nbsp;&nbsp; </span>Lazio<span style=\"mso-spacerun: yes;\">&nbsp;&nbsp; </span>per<span style=\"mso-spacerun: yes;\">&nbsp;&nbsp; </span>l’aggiornamento del Piano di Risanamento<span style=\"mso-spacerun: yes;\">&nbsp;&nbsp; </span>della<span style=\"mso-spacerun: yes;\">&nbsp;&nbsp; </span>Qualità<span style=\"mso-spacerun: yes;\">&nbsp;&nbsp; </span>dell’Aria (PRQA) - codice avviso 02 _2026.&nbsp;</span></p>","descrizioneBreve":"<p><span style=\"font-size: 12.0pt; mso-bidi-font-size: 11.0pt; line-height: 107%; font-family: 'Times New Roman',serif; mso-fareast-font-family: Calibri; mso-ansi-language: IT; mso-fareast-language: EN-US; mso-bidi-language: AR-SA;\">Avviso pubblico, per titoli e colloquio, per l’assunzione a tempo pieno e determinato della durata di 12 mesi prorogabili di n. 1 unità di personale del profilo professionale di Collaboratore Tecnico Professionale, Area dei professionisti della salute e dei funzionari , CCNL comparto Sanità,<span style=\"mso-spacerun: yes;\">&nbsp; </span>per le attività<span style=\"mso-spacerun: yes;\">&nbsp; </span>di cui alla Convenzione<span style=\"mso-spacerun: yes;\">&nbsp;&nbsp; </span>con<span style=\"mso-spacerun: yes;\">&nbsp;&nbsp; </span>la<span style=\"mso-spacerun: yes;\">&nbsp;&nbsp; </span>Regione<span style=\"mso-spacerun: yes;\">&nbsp;&nbsp; </span>Lazio<span style=\"mso-spacerun: yes;\">&nbsp;&nbsp; </span>per<span style=\"mso-spacerun: yes;\">&nbsp;&nbsp; </span>l’aggiornamento del Piano di Risanamento<span style=\"mso-spacerun: yes;\">&nbsp;&nbsp; </span>della<span style=\"mso-spacerun: yes;\">&nbsp;&nbsp; </span>Qualità<span style=\"mso-spacerun: yes;\">&nbsp;&nbsp; </span>dell’Aria (PRQA) - codice avviso 02 _2026.&nbsp;</span></p>","figuraRicercata":"Collaboratore Tecnico Professionale, Area dei professionisti della salute e dei funzionari","dataPubblicazione":"2026-02-19T11:00:00Z","dataScadenza":"2026-03-21T22:59:00Z","dataVisibilita":"2026-02-19T11:00:00Z","linkReindirizzamento":"https://arpalazio.selezionieconcorsi.it","tipoProcedura":"TITOLI_COLLOQUIO","group":{"id":null,"titolo":null,"concorsi":null},"importaCandidature":null,"options":null,"salaryMin":null,"salaryMax":null,"numPosti":1,"status":null,"ente":null,"entiRiferimento":["Agenzia Regionale per la Protezione dell'Ambiente del Lazio"],"tests":null,"allegatoMediaId":"c3c2df95-2a2c-421f-94bb-38936aab6720","tipiProcedureGruppo":null,"numCandidaturePending":null,"numCandidatureSubmitted":null,"procedureStatusLabel":null},{"sedi":["Lazio","Roma"],"settori":[],"categorie":["Concorso"],"calculatedStatus":"OPEN","statusLabel":"Aperto","id":"c7ff9aaed15946508375d17d8a7291e7","codice":"arpa_laz_avviso_01_2026","titolo":"ARPA Lazio - Avviso pubblico, per titoli ed esami, assunzione tempo pieno e determinato con contratto apprendistato durata 36 mesi n. 1 unità Collaboratore tecnico professionale - nel campo dell’Intelligenza Artificiale e delle tecniche di machine learning applicate all’Osservazione della Terra, Area dei professionisti della salute e dei funzionari , CCNL comparto Sanità - codice avviso 0 1_2026.","descrizione":"<p><span style=\"font-size: 12.0pt; mso-bidi-font-size: 11.0pt; line-height: 115%; font-family: 'Times New Roman',serif;\">Avviso pubblico, per titoli ed esami, per l’assunzione a tempo pieno e determinato con contratto di apprendistato della durata di<span style=\"mso-spacerun: yes;\">&nbsp; </span>36 mesi di n. 1 unità del profilo professionale di Collaboratore tecnico professionale - nel campo dell’Intelligenza Artificiale e delle tecniche di machine learning applicate all’Osservazione della Terra, Area dei professionisti della salute e dei funzionari , CCNL comparto Sanità - codice avviso 0 1_2026.</span></p>","descrizioneBreve":"<p><span style=\"font-size: 12.0pt; mso-bidi-font-size: 11.0pt; line-height: 115%; font-family: 'Times New Roman',serif;\">Avviso pubblico, per titoli ed esami, per l’assunzione a tempo pieno e determinato con contratto di apprendistato della durata di<span style=\"mso-spacerun: yes;\">&nbsp; </span>36 mesi di n. 1 unità del profilo professionale di Collaboratore tecnico professionale - nel campo dell’Intelligenza Artificiale e delle tecniche di machine learning applicate all’Osservazione della Terra, Area dei professionisti della salute e dei funzionari , CCNL comparto Sanità - codice avviso 0 1_2026.</span></p>","figuraRicercata":"Collaboratore Tecnico Professionale, Area dei professionisti della salute e dei funzionari","dataPubblicazione":"2026-02-19T11:00:00Z","dataScadenza":"2026-03-21T22:59:00Z","dataVisibilita":"2026-02-19T11:00:00Z","linkReindirizzamento":"https://arpalazio.selezionieconcorsi.it","tipoProcedura":"TITOLI_ESAMI","group":{"id":null,"titolo":null,"concorsi":null},"importaCandidature":null,"options":null,"salaryMin":null,"salaryMax":null,"numPosti":1,"status":null,"ente":null,"entiRiferimento":["Agenzia Regionale per la Protezione dell'Ambiente del Lazio"],"tests":null,"allegatoMediaId":"82d888d9-4c11-4778-8f56-f1ec6984a721","tipiProcedureGruppo":null,"numCandidaturePending":null,"numCandidatureSubmitted":null,"procedureStatusLabel":null},{"sedi":["Lombardia","Lecco"],"settori":[],"categorie":["Concorso"],"calculatedStatus":"OPEN","statusLabel":"Aperto","id":"348e172ff69a462a9c805462ec75cf8d","codice":"CASSINAV1","titolo":"AVVISO DI INTERPELLO PER IL RECLUTAMENTO DI N. 1 ISTRUTTORE AMMINISTRATIVO A TEMPO PIENO ED INDETERMINATO DA ASSEGNARE AL SETTORE AFFARI GENERALI UFFICIO DEMOGRAFICO DEL COMUNE DI CASSINA V.NA (LC), RIVOLTO AGLI IDONEI ISCRITTI NELL'ELENCO APPROVATO DAL COMUNE DI PAGNONA CON DETERMINAZIONE N. 129 DEL 27.09.2024","descrizione":"<p><strong><span style=\"font-size: 12.0pt; line-height: 115%; font-family: 'Aptos',sans-serif; mso-ascii-theme-font: minor-latin; mso-fareast-font-family: Aptos; mso-fareast-theme-font: minor-latin; mso-hansi-theme-font: minor-latin; mso-bidi-font-family: 'Times New Roman'; mso-bidi-theme-font: minor-bidi; mso-ansi-language: IT; mso-fareast-language: EN-US; mso-bidi-language: AR-SA;\">AVVISO DI INTERPELLO PER IL RECLUTAMENTO DI N. 1 ISTRUTTORE AMMINISTRATIVO A TEMPO PIENO ED INDETERMINATO DA ASSEGNARE AL SETTORE AFFARI GENERALI UFFICIO DEMOGRAFICO DEL COMUNE DI CASSINA V.NA <span style=\"mso-spacerun: yes;\">&nbsp;</span>(LC), RIVOLTO AGLI IDONEI ISCRITTI NELL'ELENCO APPROVATO DAL COMUNE DI PAGNONA CON DETERMINAZIONE N. 129 DEL 27.09.2024 </span></strong></p>","descrizioneBreve":"<p><strong><span style=\"font-size: 12.0pt; line-height: 115%; font-family: 'Aptos',sans-serif; mso-ascii-theme-font: minor-latin; mso-fareast-font-family: Aptos; mso-fareast-theme-font: minor-latin; mso-hansi-theme-font: minor-latin; mso-bidi-font-family: 'Times New Roman'; mso-bidi-theme-font: minor-bidi; mso-ansi-language: IT; mso-fareast-language: EN-US; mso-bidi-language: AR-SA;\">'AVVISO DI INTERPELLO PER IL RECLUTAMENTO DI N. 1 ISTRUTTORE AMMINISTRATIVO A TEMPO PIENO ED INDETERMINATO DA ASSEGNARE AL SETTORE AFFARI GENERALI UFFICIO DEMOGRAFICO DEL COMUNE DI CASSINA V.NA&nbsp;<span style=\"mso-spacerun: yes;\">&nbsp;</span>(LC), RIVOLTO AGLI IDONEI ISCRITTI NELL'ELENCO APPROVATO DAL COMUNE DI PAGNONA CON DETERMINAZIONE N. 129 DEL 27.09.2024 </span></strong></p>","figuraRicercata":"ISTRUTTORE AMMINISTRATIVO","dataPubblicazione":"2026-02-19T11:00:00Z","dataScadenza":"2026-03-21T11:00:00Z","dataVisibilita":"2026-02-19T11:00:00Z","linkReindirizzamento":null,"tipoProcedura":"COLLOQUIO","group":{"id":null,"titolo":null,"concorsi":null},"importaCandidature":null,"options":null,"salaryMin":null,"salaryMax":null,"numPosti":1,"status":null,"ente":null,"entiRiferimento":["Comune di Cassina Valsassina"],"tests":null,"allegatoMediaId":"21bacae3-ef2a-418c-91b4-21336ca41ab7","tipiProcedureGruppo":null,"numCandidaturePending":null,"numCandidatureSubmitted":null,"procedureStatusLabel":null},{"sedi":["Monza e della Brianza","Lombardia"],"settori":[],"categorie":["Concorso"],"calculatedStatus":"OPEN","statusLabel":"Aperto","id":"0a7d63c56c5d424b98550d1a42aef574","codice":"PROVMB_INTER_ISTRAMMCONT_DESIO_2026_1","titolo":"Avvisi di interpello in corso sull'elenco di idonei della Provincia MB e gli Enti convenzionati - profilo \"Istruttore amministrativo contabile\"","descrizione":"<p>Elenco di idonei all’assunzione nel ruolo di &nbsp;<strong>istruttore </strong><strong>amministrativo contabile</strong> per la Provincia di Monza e della Brianza e gli Enti Convenzionati sottoscriventi, ai sensi dell’art. 3bis del DL n. 80/2021 convertito in Legge n. 113/2021.</p> \n<p>Le candidature sono riservate ai soli idonei iscritti nell'elenco approvato con DET. DIRIG. RG N. 2595 del 17.10.2023 e aggiornato con DET. DIRIG. RG N. 2448 del 07.10.2024 pubblicato nella specifica sezione del sito istituzionale, raggiungibile tramite questo&nbsp;<a href=\"https://www.provincia.mb.it/servizi/bandi/concorsi-selezione-e-ricerca-personale/Selezioni-uniche-per-la-formazione-di-elenchi-di-idonei-allassunzione-nei-ruoli-di-funzionario-tecnico-funzionario-amministrativo-contabile-istruttore-tecnico-istruttore-amministrativo-contabile-e-operatore-esperto-amministrativo-contabile-per-la-Pro/\" rel=\"nofollow\">link</a>.</p> \n<p><strong>L’interpello e l’assunzione&nbsp;</strong></p> \n<p>Qualora si presentasse una vacanza in uno o più Enti sottoscriventi, la Provincia di Monza e della Brianza procederà a inviare un interpello, contenente tutte le informazioni necessarie – comprese ulteriori ed eventuali competenze aggiuntive –, agli idonei inseriti nell’elenco corrispondente al profilo ricercato.</p> \n<p>I dati degli idonei interessati verranno quindi inviati all’ente richiedente, che procederà alla seconda fase di selezione e assumerà il candidato risultato vincitore.</p>","descrizioneBreve":"Avvisi di interpello in corso sull'elenco di idonei della Provincia MB e gli Enti convenzionati - profilo \"Istruttore amministrativo contabile\"","figuraRicercata":"Istruttore amministrativo contabile","dataPubblicazione":"2025-12-18T10:50:00Z","dataScadenza":"2026-03-06T11:00:00Z","dataVisibilita":"2025-12-18T10:50:00Z","linkReindirizzamento":null,"tipoProcedura":"COLLOQUIO","group":{"id":"e4e2f2aa-4a54-4cab-a977-c6a3debc8f78","titolo":"Avvisi di interpello in corso sull'elenco di idonei della Provincia MB e gli Enti convenzionati - profilo \"Istruttore amministrativo contabile\"","concorsi":[{"sedi":["Lombardia","Monza e della Brianza"],"settori":[],"categorie":["Concorso"],"calculatedStatus":"OPEN","statusLabel":"Aperto","id":"0a7d63c56c5d424b98550d1a42aef574","titolo":"Avviso di interpello sull'elenco di idonei della Provincia MB e gli Enti convenzionati - profilo \"Istruttore amministrativo contabile\" (N. 1 posto) Comune di Desio (MB)","figuraRicercata":"Istruttore amministrativo contabile","tipoProcedura":"COLLOQUIO","dataVisibilita":"2026-02-19T11:00:00Z","dataPubblicazione":"2026-02-19T11:00:00Z","dataScadenza":"2026-03-06T11:00:00Z","linkReindirizzamento":null,"importaCandidature":null,"options":null},{"sedi":["Lombardia","Monza e della Brianza"],"settori":[],"categorie":["Concorso"],"calculatedStatus":"CLOSED","statusLabel":"Chiuso","id":"5d8b2615e278438894f86d214f2a6dd1","titolo":"Avviso di interpello sull'elenco di idonei della Provincia MB e gli Enti convenzionati - profilo \"Istruttore amministrativo contabile\" (N. 2 posti) per il Comune di Limbiate (MB)","figuraRicercata":"Istruttore amministrativo contabile","tipoProcedura":"COLLOQUIO","dataVisibilita":"2025-12-18T10:50:00Z","dataPubblicazione":"2025-12-18T10:50:00Z","dataScadenza":"2026-01-17T11:00:00Z","linkReindirizzamento":null,"importaCandidature":null,"options":null}]},"importaCandidature":null,"options":null,"salaryMin":null,"salaryMax":null,"numPosti":1,"status":null,"ente":null,"entiRiferimento":["Provincia di Monza e della Brianza","Provincia di Monza e della Brianza"],"tests":null,"allegatoMediaId":null,"tipiProcedureGruppo":["COLLOQUIO"],"numCandidaturePending":null,"numCandidatureSubmitted":null,"procedureStatusLabel":null},{"sedi":["Lombardia","Bergamo"],"settori":[],"categorie":["Avvisi di mobilità"],"calculatedStatus":"OPEN","statusLabel":"Aperto","id":"33c4f8c0f82241929bc08b0badf114b4","codice":"1183","titolo":"AVVISO DI MOBILITA’ ESTERNA AI SENSI DELL’ART. 30 DEL D.LGS. 165/2001 PER LA COPERTURA DI N. 1 POSTO A TEMPO PARZIALE E INDETERMINATO DI FUNZIONARIO TECNICO – AREA DEI FUNZIONARI E DELL’ELEVATA QUALIFICAZIONE CCNL FUNZIONI LOCALI 2019-2021 – DA ASSEGNARE ALL’UFFICIO TECNICO PER 27 ORE SETTIMANALI","descrizione":"<p><span style=\"font-size: 11.0pt; font-family: 'Times New Roman',serif; mso-fareast-font-family: 'Times New Roman'; mso-ansi-language: IT; mso-fareast-language: EN-US; mso-bidi-language: AR-SA;\">AVVISO DI MOBILITA’ ESTERNA AI SENSI DELL’ART. 30 DEL D.LGS. 165/2001 PER LA COPERTURA DI N. 1 POSTO A TEMPO PARZIALE E INDETERMINATO DI FUNZIONARIO TECNICO – AREA DEI FUNZIONARI E DELL’ELEVATA QUALIFICAZIONE CCNL FUNZIONI LOCALI 2019-2021 – DA ASSEGNARE ALL’UFFICIO TECNICO PER 27 ORE SETTIMANALI</span></p>","descrizioneBreve":"<p><span style=\"font-size: 11.0pt; font-family: 'Times New Roman',serif; mso-fareast-font-family: 'Times New Roman'; mso-ansi-language: IT; mso-fareast-language: EN-US; mso-bidi-language: AR-SA;\">AVVISO DI MOBILITA’ ESTERNA AI SENSI DELL’ART. 30 DEL D.LGS. 165/2001 PER LA COPERTURA DI N. 1 POSTO A TEMPO PARZIALE E INDETERMINATO DI FUNZIONARIO TECNICO – AREA DEI FUNZIONARI E DELL’ELEVATA QUALIFICAZIONE CCNL FUNZIONI LOCALI 2019-2021 – DA ASSEGNARE ALL’UFFICIO TECNICO PER 27 ORE SETTIMANALI</span></p>","figuraRicercata":"FUNZIONARIO TECNICO – AREA DEI FUNZIONARI E DELL’ELEVATA QUALIFICAZIONE","dataPubblicazione":"2026-02-19T11:00:00Z","dataScadenza":"2026-03-21T11:00:00Z","dataVisibilita":"2026-02-19T11:00:00Z","linkReindirizzamento":null,"tipoProcedura":"COLLOQUIO","group":{"id":null,"titolo":null,"concorsi":null},"importaCandidature":null,"options":null,"salaryMin":null,"salaryMax":null,"numPosti":1,"status":null,"ente":null,"entiRiferimento":["Comune di Fiorano Al Serio"],"tests":null,"allegatoMediaId":"0a82716e-e0dd-4fb4-be36-3e3be948fc36","tipiProcedureGruppo":null,"numCandidaturePending":null,"numCandidatureSubmitted":null,"procedureStatusLabel":null},{"sedi":["Sicilia","Caltanissetta"],"settori":["Amministrazione"],"categorie":["Selezione Professionisti ed Esperti"],"calculatedStatus":"OPEN","statusLabel":"Aperto","id":"52f8f029ae7f45f2b067715db3d88560","codice":"AVCLDFCA","titolo":"AVVISO finalizzato alla selezione e nomina dei componenti delle Commissioni esaminatrici incaricate delle procedure concorsuali relative ai profili di Funzionario ed Assistente bandite dal Cefpas","descrizione":"<p>AVVISO finalizzato alla selezione e nomina dei componenti delle Commissioni esaminatrici incaricate delle procedure concorsuali relative ai profili di Funzionario ed Assistente bandite dal Cefpas</p>","descrizioneBreve":"<p><span style=\"font-family: 'Segoe UI',sans-serif; color: black; mso-themecolor: text1;\">E’ indetta una manifestazione di interesse finalizzata alla individuazione e nomina di componenti esperti, da ricercarsi all’esterno del Centro, per la composizione della Commissione di concorso - (o più Commissioni) -, incaricata di condurre le selezioni in riferimento alle procedure concorsuali relative ai profili di Funzionario (<em>CodiceCLDFA1</em>) e di Assistente (<em>CodiceCLCAA1</em>) bandite dal Cefpas con Deliberazione del Direttore del Centro n. <span style=\"mso-spacerun: yes;\">&nbsp;</span>180 del 14 novembre 2025.</span></p>","figuraRicercata":"Membro Commissione di Concorso","dataPubblicazione":"2026-02-19T11:00:00Z","dataScadenza":"2026-02-27T11:00:00Z","dataVisibilita":"2026-02-19T11:00:00Z","linkReindirizzamento":null,"tipoProcedura":"TITOLI","group":{"id":null,"titolo":null,"concorsi":null},"importaCandidature":null,"options":null,"salaryMin":null,"salaryMax":null,"numPosti":6,"status":null,"ente":null,"entiRiferimento":["Centro per la Formazione Permanente e l'Aggiornamento del Personale del Servizio Sanitario-Cefpas"],"tests":null,"allegatoMediaId":"1a38ae75-90e8-4bf0-9e31-72c44f4d861d","tipiProcedureGruppo":null,"numCandidaturePending":null,"numCandidatureSubmitted":null,"procedureStatusLabel":null},{"sedi":["Puglia","Lecce"],"settori":[],"categorie":["Concorso"],"calculatedStatus":"OPEN","statusLabel":"Aperto","id":"02b02a60afbe40579b8f2487f1854a8e","codice":"C_B506_1_2026","titolo":"AVVISO PUBBLICO DI SELEZIONE PER L’ASSUNZIONE A TEMPO DETERMINATO, FULL-TIME, DI n. 8 ASSISTENTI SOCIALI PER IL SERVIZIO SOCIALE PROFESSIONALE","descrizione":"<p>AVVISO PUBBLICO DI SELEZIONE PER L’ASSUNZIONE A TEMPO DETERMINATO, FULL-TIME, DI n. 8 ASSISTENTI SOCIALI PER IL SERVIZIO SOCIALE PROFESSIONALE di cui 1 posto prioritariamente riservato ai volontari delle FF.AA., ai sensi degli artt. 1014 e 678 del Decreto Lgs.vo n. 66/2010 e ss.mm.eii. e con riserva del 40% dei posti banditi ai sensi dell’art. 35 comma 3-bis lett. a) del Decreto Legislativo n. 165/2001 e ss.mm.eii.</p>\n<p>&nbsp;</p>","descrizioneBreve":"<p>AVVISO PUBBLICO DI SELEZIONE PER L’ASSUNZIONE A TEMPO DETERMINATO, FULL-TIME, DI n. 8 ASSISTENTI SOCIALI PER IL SERVIZIO SOCIALE PROFESSIONALE di cui 1 posto prioritariamente riservato ai volontari delle FF.AA., ai sensi degli artt. 1014 e 678 del Decreto Lgs.vo n. 66/2010 e ss.mm.eii. e con riserva del 40% dei posti banditi ai sensi dell’art. 35 comma 3-bis lett. a) del Decreto Legislativo n. 165/2001 e ss.mm.eii.</p>","figuraRicercata":"ASSISTENTE SOCIALE","dataPubblicazione":"2026-02-19T11:00:00Z","dataScadenza":"2026-03-11T22:59:00Z","dataVisibilita":"2026-02-19T11:00:00Z","linkReindirizzamento":null,"tipoProcedura":"TITOLI_ESAMI","group":{"id":null,"titolo":null,"concorsi":null},"importaCandidature":null,"options":null,"salaryMin":null,"salaryMax":null,"numPosti":8,"status":null,"ente":null,"entiRiferimento":["Comune di Campi Salentina"],"tests":null,"allegatoMediaId":"4248047a-a0d4-4789-a5f7-7592c7f1100a","tipiProcedureGruppo":null,"numCandidaturePending":null,"numCandidatureSubmitted":null,"procedureStatusLabel":null}],"pageable":{"pageNumber":1,"pageSize":10,"sort":[{"direction":"DESC","property":"dataPubblicazione","ignoreCase":false,"nullHandling":"NATIVE","ascending":false,"descending":true},{"direction":"ASC","property":"titolo","ignoreCase":false,"nullHandling":"NATIVE","ascending":true,"descending":false},{"direction":"ASC","property":"id","ignoreCase":false,"nullHandling":"NATIVE","ascending":true,"descending":false}],"offset":10,"paged":true,"unpaged":false},"totalElements":61605,"totalPages":6161,"last":false,"size":10,"number":1,"sort":[{"direction":"DESC","property":"dataPubblicazione","ignoreCase":false,"nullHandling":"NATIVE","ascending":false,"descending":true},{"direction":"ASC","property":"titolo","ignoreCase":false,"nullHandling":"NATIVE","ascending":true,"descending":false},{"direction":"ASC","property":"id","ignoreCase":false,"nullHandling":"NATIVE","ascending":true,"descending":false}],"numberOfElements":10,"first":false,"empty":false}