{"content":[{"sedi":["Umbria","Perugia"],"settori":[],"categorie":["Selezione Professionisti ed Esperti"],"calculatedStatus":"VISIBLE","statusLabel":"In Apertura","id":"d45492185ce14b4f9b4e2838b42f5709","codice":"2QOKD5/INC/2026/001","titolo":"AVVISO PUBBLICO PER IL CONFERIMENTO DI INCARICO PROFESSIONALE ESTERNO (Art. 7, c. 6, D.Lgs. 165/2001) DI COORDINATORE DI PROGETTO IN LOCO Progetto The NET – Rafforzamento della governance per la prevenzione oncologica femminile e la salute della donna in Malawi","descrizione":"<p><span style=\"font-size: 12.0pt; font-family: 'Times New Roman',serif; mso-fareast-font-family: 'Times New Roman'; mso-fareast-language: IT;\">Il Comune di Perugia, in qualità di Ente Capofila del Progetto “The NET – Rafforzamento della governance per la prevenzione oncologica femminile e la salute della donna in Malawi”, finanziato dall’Agenzia Italiana per la Cooperazione allo Sviluppo (AICS), rende noto che è indetta una procedura comparativa per l’affidamento dell’incarico professionale di <strong>Coordinatore di Progetto in loco (Resident Lead – RL)</strong> da svolgersi nel Paese di realizzazione, Blantyre – Malawi, ai sensi dell’art. 7, comma 6, del D.Lgs. 165/2001 e s.m.i. L’incarico è finalizzato al coordinamento operativo, gestionale e tecnico delle attività progettuali nell’ambito del partenariato internazionale del progetto.</span></p>\n<p><span style=\"font-size: 12.0pt; font-family: 'Times New Roman',serif; mso-fareast-font-family: 'Times New Roman'; mso-fareast-language: IT;\">Le attività progettuali prevedono la realizzazione di formazione, raccolta dati, empowerment delle strutture sanitarie in Malawi scambi, elaborazione di modelli per migliorare la governance delle politiche locali e sperimentazione di azioni volte a perseguire la prevenzione oncologica femminile e la salute delle donne in Malawi.</span></p>\n<p><span style=\"font-size: 12.0pt; font-family: 'Times New Roman',serif; mso-fareast-font-family: 'Times New Roman'; mso-fareast-language: IT;\">È richiesto un profilo professionale altamente qualificato con comprovata esperienza nella gestione di progetti di cooperazione internazionale allo sviluppo, preferibilmente nel settore sanitario e nel contesto dell’Africa Sub-Sahariana.</span></p>\n<p><span style=\"font-size: 12.0pt; font-family: 'Times New Roman',serif; mso-fareast-font-family: 'Times New Roman'; mso-fareast-language: IT;\">Il Coordinatore di Progetto in loco (Resident Lead) sarà responsabile dell’attuazione operativa e del raggiungimento dei risultati previsti dal Progetto “The NET – Rafforzamento della governance per la prevenzione oncologica femminile e la salute della donna in Malawi”. L’incarico è conferito in ragione dell'assenza, all'interno dell'organico dell'Ente, di figure professionali con le competenze specialistiche e l'esperienza specifica richieste per l'esecuzione di tale attività di cooperazione internazionale.</span></p>\n<p><span style=\"font-size: 12.0pt; font-family: 'Times New Roman',serif; mso-fareast-font-family: 'Times New Roman'; mso-fareast-language: IT;\">L’incarico sarà svolto in stretto coordinamento con il Comune di Perugia e prevede una <strong>presenza continuativa in Malawi</strong> presso gli uffici del partner Peace and Development Trust (Blantyre), salvo brevi periodo di rientro nel paese di origine, con possibili missioni nei distretti di Thyolo e Zomba. Sono previste inoltre missioni in Italia per riunioni di coordinamento. L’incarico dovrà essere svolto nel rispetto del Codice di Comportamento del Comune di Perugia.</span></p>\n<p><span style=\"font-size: 12.0pt; font-family: 'Times New Roman',serif; mso-fareast-font-family: 'Times New Roman'; mso-fareast-language: IT;\">L’incarico sarà conferito mediante&nbsp;<strong>contratto di lavoro autonomo</strong> ai sensi dell'art. 7 del D.Lgs. 165/2001 per una durata massima di <strong>30 mesi</strong> e comunque fino alla chiusura del progetto e all’approvazione del report finale da parte dell’AICS.</span></p>","descrizioneBreve":"<p><span style=\"font-size: 12.0pt; font-family: 'Times New Roman',serif; mso-fareast-font-family: 'Times New Roman'; mso-fareast-language: IT;\">Il Comune di Perugia, in qualità di Ente Capofila del Progetto “The NET – Rafforzamento della governance per la prevenzione oncologica femminile e la salute della donna in Malawi”, finanziato dall’Agenzia Italiana per la Cooperazione allo Sviluppo (AICS), rende noto che è indetta una procedura comparativa per l’affidamento dell’incarico professionale di <strong>Coordinatore di Progetto in loco (Resident Lead – RL)</strong> da svolgersi nel Paese di realizzazione, Blantyre – Malawi, ai sensi dell’art. 7, comma 6, del D.Lgs. 165/2001 e s.m.i. L’incarico è finalizzato al coordinamento operativo, gestionale e tecnico delle attività progettuali nell’ambito del partenariato internazionale del progetto.</span></p>","figuraRicercata":"Coordinatore di Progetto in loco","dataPubblicazione":"2026-03-30T22:00:00Z","dataScadenza":"2026-04-15T21:59:00Z","dataVisibilita":"2025-03-30T22:00:00Z","linkReindirizzamento":null,"tipoProcedura":"TITOLI_COLLOQUIO","group":{"id":null,"titolo":null,"concorsi":null},"importaCandidature":null,"options":null,"salaryMin":null,"salaryMax":null,"numPosti":1,"status":null,"ente":null,"entiRiferimento":["Comune di Perugia"],"tests":null,"allegatoMediaId":null,"tipiProcedureGruppo":null,"numCandidaturePending":null,"numCandidatureSubmitted":null,"procedureStatusLabel":null},{"sedi":["Emilia Romagna","Parma"],"settori":[],"categorie":["Concorso"],"calculatedStatus":"VISIBLE","statusLabel":"In Apertura","id":"535a1756f9ab497fbb9ba4e800cb97d8","codice":"2026cdr008","titolo":"SELEZIONE PUBBL. PER N. 1 CONTRATTO DI RICERCA, ART.22 L. 240/2010, TD 24 MESI, GSD 02/PHYS-02,SSD PHYS 02/A -DIPARTIMENTO DI SCIENZE MATEMATICHE, FISICHE E INFORMATICHE-UNIV. DI PARMA","descrizione":"<p>PRINCIPALI ATTIVITA' DI RICERCA OGGETTO DL CONTRATTO</p>\n<p><span style=\"font-size: 10.0pt; line-height: 107%; mso-ascii-font-family: Calibri; mso-fareast-font-family: Calibri; mso-hansi-font-family: Calibri; mso-bidi-font-family: Calibri;\"><span style=\"mso-list: Ignore;\">(1)<span style=\"font: 7.0pt 'Times New Roman';\">&nbsp; </span></span></span><span style=\"font-size: 10.0pt; line-height: 107%; mso-ascii-font-family: Calibri; mso-hansi-font-family: Calibri; mso-bidi-font-family: Calibri;\">Sviluppare il formalismo del <em>Large-Scale Structure bootstrap</em></span></p>\n<p><span style=\"font-size: 10.0pt; line-height: 107%; mso-ascii-font-family: Calibri; mso-fareast-font-family: Calibri; mso-hansi-font-family: Calibri; mso-bidi-font-family: Calibri;\"><span style=\"mso-list: Ignore;\">(2)<span style=\"font: 7.0pt 'Times New Roman';\">&nbsp; </span></span></span><span style=\"font-size: 10.0pt; line-height: 107%; mso-ascii-font-family: Calibri; mso-hansi-font-family: Calibri; mso-bidi-font-family: Calibri;\">Sviluppare approccio <em>data-driven</em> per ricerca di nuova fisica</span></p>\n<p><span style=\"font-size: 10.0pt; line-height: 107%; mso-ascii-font-family: Calibri; mso-fareast-font-family: Calibri; mso-hansi-font-family: Calibri; mso-bidi-font-family: Calibri;\"><span style=\"mso-list: Ignore;\">(3)<span style=\"font: 7.0pt 'Times New Roman';\">&nbsp; </span></span></span><span style=\"font-size: 10.0pt; line-height: 107%; mso-ascii-font-family: Calibri; mso-hansi-font-family: Calibri; mso-bidi-font-family: Calibri;\">Applicazione ai dati cosmologici </span></p>","descrizioneBreve":"<p>PRINCIPALI ATTIVITA' DI RICERCA OGGETTO DL CONTRATTO</p>\n<p><span style=\"font-size: 10.0pt; line-height: 107%; mso-ascii-font-family: Calibri; mso-fareast-font-family: Calibri; mso-hansi-font-family: Calibri; mso-bidi-font-family: Calibri;\"><span style=\"mso-list: Ignore;\">(1)<span style=\"font: 7.0pt 'Times New Roman';\">&nbsp; </span></span></span><span style=\"font-size: 10.0pt; line-height: 107%; mso-ascii-font-family: Calibri; mso-hansi-font-family: Calibri; mso-bidi-font-family: Calibri;\">Sviluppare il formalismo del <em>Large-Scale Structure bootstrap</em></span></p>\n<p><span style=\"font-size: 10.0pt; line-height: 107%; mso-ascii-font-family: Calibri; mso-fareast-font-family: Calibri; mso-hansi-font-family: Calibri; mso-bidi-font-family: Calibri;\"><span style=\"mso-list: Ignore;\">(2)<span style=\"font: 7.0pt 'Times New Roman';\">&nbsp; </span></span></span><span style=\"font-size: 10.0pt; line-height: 107%; mso-ascii-font-family: Calibri; mso-hansi-font-family: Calibri; mso-bidi-font-family: Calibri;\">Sviluppare approccio <em>data-driven</em> per ricerca di nuova fisica</span></p>\n<p><span style=\"font-size: 10.0pt; line-height: 107%; mso-ascii-font-family: Calibri; mso-fareast-font-family: Calibri; mso-hansi-font-family: Calibri; mso-bidi-font-family: Calibri;\"><span style=\"mso-list: Ignore;\">(3)<span style=\"font: 7.0pt 'Times New Roman';\">&nbsp; </span></span></span><span style=\"font-size: 10.0pt; line-height: 107%; mso-ascii-font-family: Calibri; mso-hansi-font-family: Calibri; mso-bidi-font-family: Calibri;\">Applicazione ai dati cosmologici</span></p>","figuraRicercata":"CONTRATTISTA DI RICERCA","dataPubblicazione":"2026-02-20T23:01:00Z","dataScadenza":"2026-03-20T22:59:00Z","dataVisibilita":"2026-02-18T19:00:00Z","linkReindirizzamento":"https://pica.cineca.it/unipr/2026cdr008","tipoProcedura":"TITOLI_COLLOQUIO","group":{"id":null,"titolo":null,"concorsi":null},"importaCandidature":null,"options":null,"salaryMin":null,"salaryMax":null,"numPosti":1,"status":null,"ente":null,"entiRiferimento":["Universita' degli Studi di Parma"],"tests":null,"allegatoMediaId":null,"tipiProcedureGruppo":null,"numCandidaturePending":null,"numCandidatureSubmitted":null,"procedureStatusLabel":null},{"sedi":["Lombardia","Brescia"],"settori":[],"categorie":["Avvisi di mobilità"],"calculatedStatus":"OPEN","statusLabel":"Aperto","id":"8ab8b8c4d3d240febad54a23974a4a49","codice":"Mob_pl","titolo":"AVVISO DI MOBILITÀ ESTERNA PER LA COPERTURA A TEMPO PIENO E INDETERMINATO DI N. 1 POSTO DI AGENTE DI POLIZIA LOCALE (EX CAT.C) DA ASSEGNARE AL CORPO DI POLIZIA LOCALE, AI SENSI DELL’ART. 30, COMMA 1, D.LGS. 165/2001 E S.M.I. PRESSO IL COMUNE DI VILLA CARCINA","descrizione":"<p>AVVISO DI MOBILITÀ ESTERNA PER LA COPERTURA A TEMPO PIENO E INDETERMINATO DI N. 1 POSTO DI AGENTE DI POLIZIA LOCALE (EX CAT.C) DA ASSEGNARE AL CORPO DI POLIZIA LOCALE, AI SENSI DELL’ART. 30, COMMA 1, D.LGS. 165/2001 E S.M.I. PRESSO IL COMUNE DI VILLA CARCINA</p>","descrizioneBreve":"<p>AVVISO DI MOBILITÀ ESTERNA PER LA COPERTURA A TEMPO PIENO E INDETERMINATO DI N. 1 POSTO DI AGENTE DI POLIZIA LOCALE (EX CAT.C) DA ASSEGNARE AL CORPO DI POLIZIA LOCALE, AI SENSI DELL’ART. 30, COMMA 1, D.LGS. 165/2001 E S.M.I. PRESSO IL COMUNE DI VILLA CARCINA</p>","figuraRicercata":"agente di polizia locale","dataPubblicazione":"2026-02-19T12:30:00Z","dataScadenza":"2026-03-21T22:59:00Z","dataVisibilita":"2026-02-19T12:30:00Z","linkReindirizzamento":null,"tipoProcedura":"COLLOQUIO","group":{"id":null,"titolo":null,"concorsi":null},"importaCandidature":null,"options":null,"salaryMin":null,"salaryMax":null,"numPosti":1,"status":null,"ente":null,"entiRiferimento":["Comune di Villa Carcina"],"tests":null,"allegatoMediaId":"b523c31a-ede2-45fa-8b58-6f625550f247","tipiProcedureGruppo":null,"numCandidaturePending":null,"numCandidatureSubmitted":null,"procedureStatusLabel":null},{"sedi":["Abruzzo","L'Aquila"],"settori":["Amministrazione"],"categorie":["Concorso"],"calculatedStatus":"OPEN","statusLabel":"Aperto","id":"4d6a62d7986542718b0baba5581d1605","codice":"I80460","titolo":"COMUNE DI SULMONA: Bando di concorso pubblico, per esami, finalizzato all’assunzione a tempo indeterminato e parziale all’88,88% di n. 2 unità di personale, profilo professionale di Operatore tecnico esperto da destinare alla 4^Ripartizione – Polizia Locale/Protezione civile/Trasporti, mobilità e viabilità - dell’Ente- Area Operatori esperti (Ex Cat. B) CCNL Comparto Funzioni locali.","descrizione":"<p>COMUNE DI SULMONA: Bando di concorso pubblico, per esami, finalizzato all’assunzione a tempo indeterminato e parziale all’88,88% di n. 2 unità di personale, profilo professionale di Operatore tecnico esperto da destinare alla 4^Ripartizione – Polizia Locale/Protezione civile/Trasporti, mobilità e viabilità - dell’Ente- Area Operatori esperti (Ex Cat. B) CCNL Comparto Funzioni locali.</p>","descrizioneBreve":"<p>COMUNE DI SULMONA: Bando di concorso pubblico, per esami, finalizzato all’assunzione a tempo indeterminato e parziale all’88,88% di n. 2 unità di personale, profilo professionale di Operatore tecnico esperto da destinare alla 4^Ripartizione – Polizia Locale/Protezione civile/Trasporti, mobilità e viabilità - dell’Ente- Area Operatori esperti (Ex Cat. B) CCNL Comparto Funzioni locali.</p>","figuraRicercata":"Operatore tecnico esperto","dataPubblicazione":"2026-02-19T12:30:00Z","dataScadenza":"2026-03-11T22:59:00Z","dataVisibilita":"2026-02-19T12:30:00Z","linkReindirizzamento":null,"tipoProcedura":"ESAMI","group":{"id":null,"titolo":null,"concorsi":null},"importaCandidature":null,"options":null,"salaryMin":null,"salaryMax":null,"numPosti":2,"status":null,"ente":null,"entiRiferimento":["Comune di Sulmona"],"tests":null,"allegatoMediaId":"fb022138-1f1a-4e1c-973b-4782252e261a","tipiProcedureGruppo":null,"numCandidaturePending":null,"numCandidatureSubmitted":null,"procedureStatusLabel":null},{"sedi":["Emilia Romagna","Parma"],"settori":[],"categorie":["Concorso"],"calculatedStatus":"OPEN","statusLabel":"Aperto","id":"a6d3f34039004f4dbbb1f86322efc124","codice":"COMUNEPARMA2026ISTRINFO","titolo":"Selezione pubblica per soli esami per la copertura di n. 2 posti di Istruttore informatico (Area Istruttori), a tempo determinato e pieno, a supporto del progetto “Integrated Satellite and Terrestrial dAta for a Resilient Smart City”","descrizione":"<p>E' indetta una selezione pubblica per soli esami per la copertura di n. 2 posti di Istruttore informatico (Area Istruttori), a tempo determinato e pieno, a supporto del progetto “Integrated Satellite and Terrestrial dAta for a Resilient Smart City” (InSTARSmartCity CUP F93C25000500001).</p>","descrizioneBreve":"<p>Selezione pubblica per soli esami per la copertura di n. 2 posti di Istruttore informatico (Area Istruttori), a tempo determinato e pieno.</p>","figuraRicercata":"Istruttore informatico","dataPubblicazione":"2026-02-19T12:30:00Z","dataScadenza":"2026-03-21T22:59:00Z","dataVisibilita":"2026-02-19T12:30:00Z","linkReindirizzamento":null,"tipoProcedura":"COLLOQUIO","group":{"id":null,"titolo":null,"concorsi":null},"importaCandidature":null,"options":null,"salaryMin":null,"salaryMax":null,"numPosti":2,"status":null,"ente":null,"entiRiferimento":["Comune di Parma"],"tests":null,"allegatoMediaId":"77f7f767-317f-4321-9271-43459cf664a9","tipiProcedureGruppo":null,"numCandidaturePending":null,"numCandidatureSubmitted":null,"procedureStatusLabel":null},{"sedi":["Sicilia","Trapani"],"settori":[],"categorie":["Concorso"],"calculatedStatus":"OPEN","statusLabel":"Aperto","id":"09f9338279494b1597a0124359ce9cf9","codice":"ASS26","titolo":"Bando riservato a personale tecnico amministrativo, profilo Assistente a tempo determinato con 24 mesi di servizio","descrizione":"<p>Bando riservato a personale tecnico amministrativo, profilo Assistente a tempo</p>\n<p>determinato con 24 mesi di servizio</p>","descrizioneBreve":"<p>Bando riservato a personale tecnico amministrativo, profilo Assistente a tempo</p>\n<p>determinato con 24 mesi di servizio</p>","figuraRicercata":"Assistente","dataPubblicazione":"2026-02-19T12:15:00Z","dataScadenza":"2026-03-02T14:00:00Z","dataVisibilita":"2026-02-19T12:15:00Z","linkReindirizzamento":null,"tipoProcedura":"TITOLI","group":{"id":null,"titolo":null,"concorsi":null},"importaCandidature":null,"options":null,"salaryMin":null,"salaryMax":null,"numPosti":1,"status":null,"ente":null,"entiRiferimento":["Conservatorio di Musica Antonio Scontrino di Trapani"],"tests":null,"allegatoMediaId":"757aa7f5-6749-4eef-a60d-97134f62bda1","tipiProcedureGruppo":null,"numCandidaturePending":null,"numCandidatureSubmitted":null,"procedureStatusLabel":null},{"sedi":["Lombardia","Varese"],"settori":[],"categorie":["Avvisi di mobilità"],"calculatedStatus":"OPEN","statusLabel":"Aperto","id":"65a6cb1835d34b26a074afcddf335495","codice":"UF2BHF022026","titolo":"COMUNE DI ANGERA - MOBILITA' VOLONTARIA, ART. 30 D.LGS. 165/01, PER N. 1 POSTO DI COLLABORATORE AMMINISTRATIVO (EX CAT. B3) - AREA PROFESSIONALE DEGLI OPERATORI ESPERTI - PRESSO L'AREA FINANZIARIA.","descrizione":"<p>È indetta una procedura di mobilità volontaria dall’esterno verso questo Ente, ai sensi dell’art. 30 del D.Lgs. n. 165/2001, per la copertura di n. 1 posto di Collaboratore Amministrativo (ex Cat. B3) – Area Operatori Esperti – a tempo pieno e indeterminato, da assegnare all’Area Finanziaria, rivolta a dipendenti di&nbsp;<span style=\"mso-ascii-font-family: Calibri; mso-fareast-font-family: Calibri; mso-hansi-font-family: Calibri;\">amministrazioni pubbliche con contratto di lavoro a tempo indeterminato e inquadramento nell’Area professionale degli Operatori Esperti del CCNL Comparto Funzioni Locali (o in area/categoria equiparabile, se dipendenti di Enti di diverso comparto), con profilo professionale di “Collaboratore Amministrativo” o di “Collaboratore Amministrativo – Contabile” o profilo professionale corrispondente, per contenuto lavorativo e competenze, a quello oggetto della presente procedura.</span></p>","descrizioneBreve":"<p>È indetta una procedura di mobilità volontaria dall’esterno verso questo Ente, ai sensi dell’art. 30 del D.Lgs. n. 165/2001, per la copertura di n. 1 posto di Collaboratore Amministrativo (ex Cat. B3) – Area Operatori Esperti – a tempo pieno e indeterminato, da assegnare all’Area Finanziaria.</p>","figuraRicercata":"Collaboratore Amministrativo Area Finanziaria","dataPubblicazione":"2026-02-19T12:10:00Z","dataScadenza":"2026-03-21T22:59:00Z","dataVisibilita":"2026-02-19T12:10:00Z","linkReindirizzamento":null,"tipoProcedura":"TITOLI_COLLOQUIO","group":{"id":null,"titolo":null,"concorsi":null},"importaCandidature":null,"options":null,"salaryMin":null,"salaryMax":null,"numPosti":1,"status":null,"ente":null,"entiRiferimento":["Comune di Angera"],"tests":null,"allegatoMediaId":"06f7ce46-7ac3-4b9c-bd0f-b95593dcfafd","tipiProcedureGruppo":null,"numCandidaturePending":null,"numCandidatureSubmitted":null,"procedureStatusLabel":null},{"sedi":["Lazio","Roma"],"settori":[],"categorie":["Concorso"],"calculatedStatus":"OPEN","statusLabel":"Aperto","id":"593691890222427d8dbdfa6da8306d89","codice":"arpa_laz_avviso_03_2026","titolo":"ARPA Lazio - Avviso pubblico, titoli e colloquio, assunzione tempo pieno e determinato 12 mesi prorogabili n. 1 Collaboratore Tecnico Professionale, Area dei professionisti salute e funzionari, CCNL comparto Sanità, per attività monitoraggio ambientale in materia atmosfera e rumore aree portuali Civitavecchia, Fiumicino e Gaeta Convenzione “ Monitoraggio delle matrici ambientali connesse alle procedure V.I.A. dei Porti di Civitavecchia, Fiumicino e Gaeta (ADDENDUM 1-5,7)”codice avviso 0 3_2026.","descrizione":"<p>Avviso pubblico, per titoli e colloquio, per l’assunzione a tempo pieno e determinato della durata di 12 mesi prorogabili di n. 1 unità di personale del profilo professionale di Collaboratore Tecnico Professionale, Area dei professionisti della salute e dei funzionari, CCNL comparto Sanità,<span style=\"mso-spacerun: yes;\">&nbsp; </span>per le attività<span style=\"mso-spacerun: yes;\">&nbsp; </span>di monitoraggio ambientale in materia di atmosfera e rumore nelle aree portuali di Civitavecchia, Fiumicino e Gaeta di cui alla Convenzione “ Monitoraggio delle matrici ambientali connesse alle procedure V.I.A. dei Porti di Civitavecchia, Fiumicino e Gaeta (ADDENDUM 1-5,7)”_ codice avviso 0 3_2026.</p>","descrizioneBreve":"<p>Avviso pubblico, per titoli e colloquio, per l’assunzione a tempo pieno e determinato della durata di 12 mesi prorogabili di n. 1 unità di personale del profilo professionale di Collaboratore Tecnico Professionale, Area dei professionisti della salute e dei funzionari, CCNL comparto Sanità,<span style=\"mso-spacerun: yes;\">&nbsp; </span>per le attività<span style=\"mso-spacerun: yes;\">&nbsp; </span>di monitoraggio ambientale in materia di atmosfera e rumore nelle aree portuali di Civitavecchia, Fiumicino e Gaeta di cui alla Convenzione “ Monitoraggio delle matrici ambientali connesse alle procedure V.I.A. dei Porti di Civitavecchia, Fiumicino e Gaeta (ADDENDUM 1-5,7)”_ codice avviso 0 3_2026.</p>","figuraRicercata":"Collaboratore Tecnico Professionale, Area dei professionisti della salute e dei funzionari","dataPubblicazione":"2026-02-19T12:00:00Z","dataScadenza":"2026-03-21T22:59:00Z","dataVisibilita":"2026-02-19T12:00:00Z","linkReindirizzamento":"https://arpalazio.selezionieconcorsi.it","tipoProcedura":"TITOLI_COLLOQUIO","group":{"id":null,"titolo":null,"concorsi":null},"importaCandidature":null,"options":null,"salaryMin":null,"salaryMax":null,"numPosti":1,"status":null,"ente":null,"entiRiferimento":["Agenzia Regionale per la Protezione dell'Ambiente del Lazio"],"tests":null,"allegatoMediaId":"5fac94a4-2ac7-4bac-8aa0-c317452c3570","tipiProcedureGruppo":null,"numCandidaturePending":null,"numCandidatureSubmitted":null,"procedureStatusLabel":null},{"sedi":["Emilia Romagna","Parma"],"settori":[],"categorie":["Avvisi di mobilità"],"calculatedStatus":"OPEN","statusLabel":"Aperto","id":"04c0150be3a34baebd9f3e99ea8a0a87","codice":"UMPE_024","titolo":"AVVISO DI MOBILITA’ VOLONTARIA ESTERNA PER LA COPERTURA DI N. 1 POSTO DI OPERATORE TECNICO MANUTENTIVO, AREA DEGLI OPERATORI ESPERTI, A TEMPO PIENO E INDETERMINATO DA ASSEGNARE ALL’AREA TECNICA DEL COMUNE DI PALANZANO","descrizione":"<p>AVVISO DI MOBILITA’ VOLONTARIA ESTERNA PER LA COPERTURA DI N. 1 POSTO DI OPERATORE TECNICO MANUTENTIVO, AREA DEGLI OPERATORI ESPERTI, A TEMPO PIENO E INDETERMINATO DA ASSEGNARE ALL’AREA TECNICA DEL COMUNE DI PALANZANO</p>","descrizioneBreve":"<p>AVVISO DI MOBILITA’ VOLONTARIA ESTERNA PER LA COPERTURA DI N. 1 POSTO DI OPERATORE TECNICO MANUTENTIVO, AREA DEGLI OPERATORI ESPERTI, A TEMPO PIENO E INDETERMINATO DA ASSEGNARE ALL’AREA TECNICA DEL COMUNE DI PALANZANO</p>","figuraRicercata":"Operatore Tecnico Manutentivo","dataPubblicazione":"2026-02-19T12:00:00Z","dataScadenza":"2026-03-23T12:00:00Z","dataVisibilita":"2026-02-19T12:00:00Z","linkReindirizzamento":null,"tipoProcedura":"TITOLI_COLLOQUIO","group":{"id":null,"titolo":null,"concorsi":null},"importaCandidature":null,"options":null,"salaryMin":null,"salaryMax":null,"numPosti":1,"status":null,"ente":null,"entiRiferimento":["Unione Montana Appennino Parma Est"],"tests":null,"allegatoMediaId":"e1143344-ad70-4c3e-b7ba-e55c86b60942","tipiProcedureGruppo":null,"numCandidaturePending":null,"numCandidatureSubmitted":null,"procedureStatusLabel":null},{"sedi":["Emilia Romagna","Bologna"],"settori":[],"categorie":["Concorso"],"calculatedStatus":"OPEN","statusLabel":"Aperto","id":"4059338ed82d46019d1f44cfd366ae99","codice":"06-05-07/06/2026","titolo":"CITTÀ METROPOLITANA DI BOLOGNA - CONCORSO PUBBLICO, PER SOLI ESAMI, PER LA COPERTURA A TEMPO PIENO E DETERMINATO DI NR. 10 (DIECI) POSTI NEL PROFILO PROFESSIONALE DI FUNZIONARIA/O EDILIZIA STRADE PATRIMONIO IMPIANTI, AREA DEI FUNZIONARI E DELL'E.Q., PER ATTIVITÀ DI RICOSTRUZIONE DEI TERRITORI ALLUVIONATI PRESSO LA CITTÀ METROPOLITANA DI BOLOGNA, L'UNIONE DEI COMUNI VALLI DEL RENO, LAVINO E SAMOGGIA, IL NUOVO CIRCONDARIO IMOLESE, L’UNIONE DEI COMUNI SAVENA-IDICE E IL COMUNE DI BUDRIO","descrizione":"<p>Concorso pubblico, per soli esami, per la copertura&nbsp;<strong>a tempo determinato e a tempo pieno</strong> di nr. 10 (dieci) posti nel profilo professionale di&nbsp;<strong>Funzionaria/o edilizia strade patrimonio impianti</strong>, Area dei Funzionari e dell’elevata qualificazione, per attività di ricostruzione dei territori alluvionati presso la Città metropolitana di Bologna, l'Unione dei Comuni Valli del Reno, Lavino e Samoggia, il Nuovo Circondario Imolese, l’Unione dei Comuni Savena-Idice e il Comune di Budrio</p>","descrizioneBreve":"<p>Concorso pubblico, per soli esami, per la copertura&nbsp;<strong>a tempo determinato e a tempo pieno</strong> di nr. 10 (dieci) posti nel profilo professionale di&nbsp;<strong>Funzionaria/o edilizia strade patrimonio impianti</strong>, Area dei Funzionari e dell’elevata qualificazione, per attività di ricostruzione dei territori alluvionati presso la Città metropolitana di Bologna, l'Unione dei Comuni Valli del Reno, Lavino e Samoggia, il Nuovo Circondario Imolese, l’Unione dei Comuni Savena-Idice e il Comune di Budrio</p>","figuraRicercata":"FUNZIONARIA/O EDILIZIA STRADE PATRIMONIO IMPIANTI","dataPubblicazione":"2026-02-19T12:00:00Z","dataScadenza":"2026-03-23T09:00:00Z","dataVisibilita":"2026-02-19T12:00:00Z","linkReindirizzamento":null,"tipoProcedura":"COLLOQUIO","group":{"id":null,"titolo":null,"concorsi":null},"importaCandidature":null,"options":null,"salaryMin":null,"salaryMax":null,"numPosti":10,"status":null,"ente":null,"entiRiferimento":["Citta' Metropolitana di Bologna"],"tests":null,"allegatoMediaId":"c4a76518-687a-483e-9343-a9ea96243da8","tipiProcedureGruppo":null,"numCandidaturePending":null,"numCandidatureSubmitted":null,"procedureStatusLabel":null}],"pageable":{"pageNumber":0,"pageSize":10,"sort":[{"direction":"DESC","property":"dataPubblicazione","ignoreCase":false,"nullHandling":"NATIVE","ascending":false,"descending":true},{"direction":"ASC","property":"titolo","ignoreCase":false,"nullHandling":"NATIVE","ascending":true,"descending":false},{"direction":"ASC","property":"id","ignoreCase":false,"nullHandling":"NATIVE","ascending":true,"descending":false}],"offset":0,"paged":true,"unpaged":false},"totalElements":61605,"totalPages":6161,"last":false,"size":10,"number":0,"sort":[{"direction":"DESC","property":"dataPubblicazione","ignoreCase":false,"nullHandling":"NATIVE","ascending":false,"descending":true},{"direction":"ASC","property":"titolo","ignoreCase":false,"nullHandling":"NATIVE","ascending":true,"descending":false},{"direction":"ASC","property":"id","ignoreCase":false,"nullHandling":"NATIVE","ascending":true,"descending":false}],"numberOfElements":10,"first":true,"empty":false}